logs/xrun.log
	Top level design units:
		syndrome_block_se_tb
xcelium> source /home/tools/cadence/installs/XCELIUM2409/tools/xcelium/files/xmsimrc
xcelium> run
000000111010000|0000001|0000001|00000001|0|1
000000111010011|0000001|0000001|00000010|0|1
000000111010101|0000001|0000001|00000100|0|1
000000111011001|0000001|0000001|00001000|0|1
000000111000001|0000001|0000001|00010000|0|1
000000111110001|0000001|0000001|00100000|0|1
000000110010001|0000001|0000001|01000000|0|1
000000101010001|0000001|0000001|10000000|0|1
000000011010001|0000001|0000001|11010001|0|1
000001111010001|0000001|0000001|01110011|0|1
000010111010001|0000001|0000001|11100110|0|1
000100111010001|0000001|0000001|00011101|0|1
001000111010001|0000001|0000001|00111010|0|1
010000111010001|0000001|0000001|01110100|0|1
100000111010001|0000001|0000001|11101000|0|1
Testes Concluídos
1920 Erros Corrigidos
  0 Erros Detectados
  0 Erros não detectados
128 Testes sem erros
Simulation complete via $finish(1) at time 10320 NS + 0
../src/tests/syndrome_block_se_tb.sv:106     $finish();
xcelium> exit
