logs/xrun.log
	Top level design units:
		or16_tb
xcelium> source /home/tools/cadence/installs/XCELIUM2409/tools/xcelium/files/xmsimrc
xcelium> run
Tempo(ns)	a			 y
-------------------------------
500	0000000000000000	 0
1000	0000000000000001	 1
1500	0000000000000010	 1
2000	0000000000000100	 1
2500	0000000000001000	 1
3000	0000000000010000	 1
3500	0000000000100000	 1
4000	0000000001000000	 1
4500	0000000010000000	 1
5000	0000000100000000	 1
5500	0000001000000000	 1
6000	0000010000000000	 1
6500	0000100000000000	 1
7000	0001000000000000	 1
7500	0010000000000000	 1
8000	0100000000000000	 1
8500	1000000000000000	 1
Simulation complete via $finish(1) at time 85 NS + 0
../src/tests/or16_tb.sv:26         $finish;
xcelium> exit
